[
  {
    "countryName": "Malaysia",
    "countryCode": "MYS"
  },
  {
    "countryName": "Singapore",
    "countryCode": "SIN"
  },
  {
    "countryName": "Indonesia",
    "countryCode": "IDN"
  },
  {
    "countryName": "India",
    "countryCode": "NDI"
  }
]